<?xml version="1.0" encoding="UTF-8" standalone="no"?>
<svg xmlns:xlink="http://www.w3.org/1999/xlink" height="17.75px" width="23.05px" xmlns="http://www.w3.org/2000/svg">
  <g transform="matrix(1.0, 0.0, 0.0, 1.0, 12.05, 12.0)">
    <use height="9.35" transform="matrix(1.0, 0.0, 0.0, 1.0, -8.15, -4.65)" width="16.35" xlink:href="#shape0"/>
  </g>
  <defs>
    <g id="shape0" transform="matrix(1.0, 0.0, 0.0, 1.0, 8.15, 4.65)">
      <path d="M7.5 -4.65 Q8.2 -4.5 8.2 -3.05 8.2 -1.3 6.45 1.15 3.9 4.7 -0.6 4.7 -3.85 4.7 -6.3 1.95 -8.15 -0.1 -8.15 -1.0 -8.15 -2.1 -7.35 -2.6 L-3.05 -3.05 Q0.5 -3.0 3.75 -3.9 L7.5 -4.65" fill="#ffffff" fill-rule="evenodd" stroke="none"/>
    </g>
  </defs>
</svg>
