<?xml version="1.0" encoding="UTF-8" standalone="no"?>
<svg xmlns:xlink="http://www.w3.org/1999/xlink" height="34.0px" width="34.0px" xmlns="http://www.w3.org/2000/svg">
  <g transform="matrix(1.0, 0.0, 0.0, 1.0, 1.0, 1.0)">
    <path d="M32.0 32.0 L0.0 32.0 0.0 0.0 32.0 0.0 32.0 32.0 Z" fill="none" stroke="#733c2f" stroke-linecap="round" stroke-linejoin="round" stroke-width="2.0"/>
    <path d="M15.35 3.7 L27.55 3.7 M2.25 27.5 Q9.25 27.35 25.7 27.35 M1.5 22.0 L8.7 22.0" fill="none" stroke="#fcf9e0" stroke-linecap="round" stroke-linejoin="round" stroke-width="1.0"/>
  </g>
</svg>
