<?xml version="1.0" encoding="UTF-8" standalone="no"?>
<svg xmlns:xlink="http://www.w3.org/1999/xlink" height="19.65px" width="19.65px" xmlns="http://www.w3.org/2000/svg">
  <g transform="matrix(1.0, 0.0, 0.0, 1.0, 8.7, 9.45)">
    <use height="15.7" transform="matrix(1.0, 0.0, 0.0, 1.0, -7.25, -8.0)" width="15.8" xlink:href="#shape0"/>
  </g>
  <defs>
    <g id="shape0" transform="matrix(1.0, 0.0, 0.0, 1.0, 7.25, 8.0)">
      <path d="M1.5 -3.35 L3.5 -1.35 -5.25 7.7 -7.25 5.7 1.5 -3.35" fill="#964d2e" fill-rule="evenodd" stroke="none"/>
      <path d="M-2.05 -5.0 L-2.1 -5.1 -1.5 -5.9 -1.3 -6.15 -1.1 -6.2 -1.0 -6.2 -0.9 -6.1 -0.8 -6.0 -0.5 -5.8 -0.35 -5.75 1.25 -6.8 4.05 -7.05 4.15 -7.5 4.35 -7.9 5.25 -7.95 5.3 -7.9 5.4 -7.85 5.6 -7.75 5.35 -7.35 4.95 -6.7 5.75 -6.15 Q6.4 -5.65 6.85 -4.8 L6.5 -3.9 Q6.05 -2.9 5.4 -2.4 L5.2 -2.3 5.55 -2.2 5.9 -1.95 Q6.25 -1.6 6.05 -1.1 L5.45 -0.15 4.75 -0.05 Q4.35 -0.1 4.15 -0.3 3.95 -0.65 4.2 -1.3 L4.5 -1.85 4.2 -1.65 2.95 -1.3 1.9 -1.25 2.05 -1.1 2.25 -0.45 2.05 0.1 1.25 0.15 Q0.65 0.0 0.3 -0.5 L0.2 -0.65 0.05 -1.15 0.1 -1.45 0.4 -1.65 0.3 -1.75 Q-0.7 -2.0 -0.8 -2.2 L-0.85 -2.3 -0.9 -2.3 -1.2 -2.6 -1.4 -3.0 -1.5 -3.05 -1.4 -3.55 -1.4 -3.8 -1.05 -4.6 -1.05 -4.7 -1.25 -4.8 -2.05 -5.0 M1.15 -4.6 Q1.05 -4.5 1.1 -4.3 L1.25 -4.0 2.1 -3.35 Q3.05 -2.95 3.95 -3.7 4.35 -3.95 4.35 -4.55 L4.1 -5.15 3.45 -5.6 3.55 -5.5 3.65 -5.15 3.7 -4.9 3.25 -4.3 Q2.8 -4.0 2.15 -4.05 1.65 -4.1 1.35 -4.35 L1.15 -4.6 M3.9 -6.15 Q3.6 -6.05 3.8 -5.8 3.95 -5.55 4.3 -5.8 L4.4 -5.95 4.3 -6.05 3.9 -6.15 M3.65 -6.5 L3.0 -6.6 Q2.65 -6.35 2.85 -6.05 L3.15 -6.0 3.5 -6.1 3.65 -6.3 3.65 -6.5" fill="#6c7071" fill-rule="evenodd" stroke="none"/>
      <path d="M5.6 -7.75 L5.7 -7.75 6.05 -7.55 6.05 -7.5 6.35 -7.15 6.45 -7.0 6.4 -7.0 6.1 -6.55 5.75 -6.15 4.95 -6.7 5.35 -7.35 5.6 -7.75 M6.85 -4.8 L6.95 -4.5 7.35 -2.9 7.85 -3.0 8.35 -2.9 8.55 -2.0 Q8.6 -1.35 8.2 -1.0 L7.95 -0.8 Q7.7 -0.8 7.0 -1.2 L7.0 -1.15 Q6.3 0.55 4.6 1.3 L4.4 1.35 4.55 1.85 4.65 2.35 4.6 2.4 4.6 2.45 3.6 2.8 Q2.85 2.9 2.6 2.55 L2.45 2.45 2.45 2.4 2.5 2.05 2.55 1.6 1.3 1.25 0.55 0.9 0.1 0.95 -0.6 0.5 -0.9 -0.15 -0.95 -0.7 -1.15 -1.1 Q-1.55 -2.0 -1.45 -3.0 L-1.4 -3.0 -1.2 -2.6 -0.9 -2.3 -0.85 -2.3 -0.8 -2.2 Q-0.7 -2.0 0.3 -1.75 L0.4 -1.65 0.1 -1.45 0.05 -1.15 0.2 -0.65 0.3 -0.5 Q0.65 0.0 1.25 0.15 L2.05 0.1 2.25 -0.45 2.05 -1.1 1.9 -1.25 2.95 -1.3 4.2 -1.65 4.5 -1.85 4.2 -1.3 Q3.95 -0.65 4.15 -0.3 4.35 -0.1 4.75 -0.05 L5.45 -0.15 6.05 -1.1 Q6.25 -1.6 5.9 -1.95 L5.55 -2.2 5.2 -2.3 5.4 -2.4 Q6.05 -2.9 6.5 -3.9 L6.85 -4.8 M-1.4 -3.8 L-2.2 -4.05 -2.3 -4.1 -2.05 -5.0 -1.25 -4.8 -1.05 -4.7 -1.05 -4.6 -1.4 -3.8 M1.15 -4.6 L1.35 -4.35 Q1.65 -4.1 2.15 -4.05 2.8 -4.0 3.25 -4.3 L3.7 -4.9 3.65 -5.15 3.55 -5.5 3.45 -5.6 4.1 -5.15 4.35 -4.55 Q4.35 -3.95 3.95 -3.7 3.05 -2.95 2.1 -3.35 L1.25 -4.0 1.1 -4.3 Q1.05 -4.5 1.15 -4.6" fill="#404040" fill-rule="evenodd" stroke="none"/>
      <path d="M-1.45 -3.0 L-1.5 -3.05 -1.4 -3.0 -1.45 -3.0" fill="#5c5f5f" fill-rule="evenodd" stroke="none"/>
      <path d="M3.65 -6.5 L3.65 -6.3 3.5 -6.1 3.15 -6.0 2.85 -6.05 Q2.65 -6.35 3.0 -6.6 L3.65 -6.5 M3.9 -6.15 L4.3 -6.05 4.4 -5.95 4.3 -5.8 Q3.95 -5.55 3.8 -5.8 3.6 -6.05 3.9 -6.15" fill="#d7dfe3" fill-rule="evenodd" stroke="none"/>
    </g>
  </defs>
</svg>
