<?xml version="1.0" encoding="UTF-8" standalone="no"?>
<svg xmlns:xlink="http://www.w3.org/1999/xlink" height="19.65px" width="19.65px" xmlns="http://www.w3.org/2000/svg">
  <g transform="matrix(1.0, 0.0, 0.0, 1.0, 8.7, 9.45)">
    <use height="12.85" transform="matrix(1.0, 0.0, 0.0, 1.0, -6.25, -6.2)" width="12.35" xlink:href="#shape0"/>
  </g>
  <defs>
    <g id="shape0" transform="matrix(1.0, 0.0, 0.0, 1.0, 6.25, 6.2)">
      <path d="M-3.6 2.8 L-3.55 2.75 -4.25 0.4 -4.2 0.05 -4.1 -0.1 -1.7 -2.5 -1.55 -2.6 -1.45 -2.6 -0.55 -2.95 -0.5 -3.0 -0.3 -3.05 -0.1 -3.05 0.2 -2.95 0.4 -2.75 0.5 -2.45 0.45 -2.25 0.35 -2.15 -2.4 0.55 -2.15 1.35 5.25 -6.05 5.55 -6.2 5.75 -6.1 6.05 -5.8 6.1 -5.65 6.1 -5.55 6.1 -5.45 5.5 -3.95 5.45 -3.85 -0.95 2.5 -0.25 2.7 2.5 0.0 2.7 -0.15 3.1 -0.05 3.35 0.2 3.4 0.35 3.4 0.4 3.35 0.7 2.95 1.9 2.9 2.0 0.35 4.55 0.15 4.6 0.05 4.6 0.0 4.6 -2.35 3.9 -2.4 3.95 -2.4 3.9 -2.5 3.7 -3.35 2.85 -3.5 2.8 -3.6 2.8 M-4.4 5.95 L-4.45 6.05 -5.0 6.6 -5.2 6.65 -5.5 6.55 -6.15 5.9 -6.25 5.6 -6.15 5.35 -5.65 4.85 -5.55 4.75 -5.55 4.85 -5.5 5.0 -4.65 5.85 -4.45 5.95 -4.4 5.95" fill="#b8c9cf" fill-rule="evenodd" stroke="none"/>
      <path d="M-2.4 3.95 L-2.5 4.05 -4.3 5.85 -4.4 5.95 -4.45 5.95 -4.65 5.85 -5.5 5.0 -5.55 4.85 -5.55 4.75 -5.5 4.65 -3.7 2.85 -3.6 2.8 -3.5 2.8 -3.35 2.85 -2.5 3.7 -2.4 3.9 -2.4 3.95" fill="#de9f10" fill-rule="evenodd" stroke="none"/>
    </g>
  </defs>
</svg>
