<?xml version="1.0" encoding="UTF-8" standalone="no"?>
<svg xmlns:xlink="http://www.w3.org/1999/xlink" height="19.65px" width="19.65px" xmlns="http://www.w3.org/2000/svg">
  <g transform="matrix(1.0, 0.0, 0.0, 1.0, 8.7, 9.45)">
    <use height="14.9" transform="matrix(1.0, 0.0, 0.0, 1.0, -8.1, -7.35)" width="15.75" xlink:href="#shape0"/>
  </g>
  <defs>
    <g id="shape0" transform="matrix(1.0, 0.0, 0.0, 1.0, 8.1, 7.35)">
      <path d="M-2.5 3.05 L-7.0 7.55 -8.1 6.45 -3.6 1.95 -2.5 3.05" fill="#725327" fill-rule="evenodd" stroke="none"/>
      <path d="M-3.6 1.95 L4.45 -3.7 4.85 -6.1 6.25 -5.6 7.1 -7.35 7.65 -5.0 6.85 -2.2 5.7 -1.05 -2.5 3.05 -3.6 1.95" fill="#e0e8eb" fill-rule="evenodd" stroke="none"/>
    </g>
  </defs>
</svg>
