<?xml version="1.0" encoding="UTF-8" standalone="no"?>
<svg xmlns:xlink="http://www.w3.org/1999/xlink" height="19.65px" width="19.65px" xmlns="http://www.w3.org/2000/svg">
  <g transform="matrix(1.0, 0.0, 0.0, 1.0, 8.7, 9.45)">
    <use height="16.65" transform="matrix(1.0, 0.0, 0.0, 1.0, -7.75, -8.95)" width="16.95" xlink:href="#shape0"/>
  </g>
  <defs>
    <g id="shape0" transform="matrix(1.0, 0.0, 0.0, 1.0, 7.75, 8.95)">
      <path d="M0.7 -2.2 L-2.1 -5.0 1.85 -8.95 4.65 -6.15 6.1 -4.7 9.2 -1.6 5.25 2.35 2.15 -0.75 0.7 -2.2" fill="#e0e8eb" fill-rule="evenodd" stroke="none"/>
      <path d="M4.65 -6.15 L5.25 -6.75 6.7 -5.3 6.1 -4.7 4.65 -6.15 M2.15 -0.75 L-6.3 7.7 -7.75 6.25 0.7 -2.2 2.15 -0.75" fill="#725327" fill-rule="evenodd" stroke="none"/>
    </g>
  </defs>
</svg>
