<?xml version="1.0" encoding="UTF-8" standalone="no"?>
<svg xmlns:xlink="http://www.w3.org/1999/xlink" height="57.85px" width="42.4px" xmlns="http://www.w3.org/2000/svg">
  <g transform="matrix(1.0, 0.0, 0.0, 1.0, 21.15, 30.55)">
    <use height="20.45" id="_p1" transform="matrix(1.0, 0.0, 0.0, 1.0, -12.6, -6.8)" width="24.75" xlink:href="#sprite0"/>
  </g>
  <defs/>
</svg>
