<?xml version="1.0" encoding="UTF-8" standalone="no"?>
<svg xmlns:xlink="http://www.w3.org/1999/xlink" height="19.9px" width="7.8px" xmlns="http://www.w3.org/2000/svg">
  <g transform="matrix(1.0, 0.0, 0.0, 1.0, 14.85, 8.0)">
    <path d="M-7.7 11.75 L-9.7 11.0 Q-12.25 10.7 -14.85 11.55 L-13.4 9.95 Q-11.9 8.45 -9.85 8.95 -7.3 9.3 -7.05 11.9 L-7.7 11.75 M-7.85 -7.6 L-7.6 -8.0 -7.05 -7.4 -7.5 -2.05 -7.7 0.35 -8.0 0.6 -8.05 0.4 -8.05 -0.7 -8.4 -1.2 -7.85 -7.6" fill="#ffffff" fill-opacity="0.8" fill-rule="evenodd" stroke="none"/>
  </g>
</svg>
