<?xml version="1.0" encoding="UTF-8" standalone="no"?>
<svg xmlns:xlink="http://www.w3.org/1999/xlink" height="2.25px" width="5.65px" xmlns="http://www.w3.org/2000/svg">
  <g transform="matrix(1.0, 0.0, 0.0, 1.0, 2.5, 0.4)">
    <path d="M3.15 -0.4 L2.2 -0.25 1.1 0.25 Q0.2 0.55 -0.5 1.2 L-0.7 1.5 0.1 1.1 1.35 0.65 2.95 0.35 M-0.7 1.5 L-1.85 1.85 -2.5 1.6" fill="none" stroke="#000000" stroke-linecap="round" stroke-linejoin="round" stroke-opacity="0.6" stroke-width="0.05"/>
  </g>
</svg>
