<?xml version="1.0" encoding="UTF-8" standalone="no"?>
<svg xmlns:xlink="http://www.w3.org/1999/xlink" height="20.15px" width="1.0px" xmlns="http://www.w3.org/2000/svg">
  <g transform="matrix(1.0, 0.0, 0.0, 1.0, 5.4, 7.35)">
    <path d="M-4.8 -6.25 L-4.85 -5.15 -4.7 0.5 -4.6 6.85 -4.4 9.95 -4.55 11.45 -4.6 12.8 -4.7 12.8 Q-5.45 10.6 -5.4 7.9 L-5.2 3.15 -5.35 -7.2 -5.3 -7.35 -5.2 -7.35 Q-4.8 -6.95 -4.8 -6.25" fill="#ffffff" fill-rule="evenodd" stroke="none"/>
  </g>
</svg>
