<?xml version="1.0" encoding="UTF-8" standalone="no"?>
<svg xmlns:xlink="http://www.w3.org/1999/xlink" height="28.0px" width="12.4px" xmlns="http://www.w3.org/2000/svg">
  <g transform="matrix(1.0, 0.0, 0.0, 1.0, 6.2, -0.3)">
    <path d="M3.25 1.5 Q5.3 3.1 6.2 6.75 L5.5 24.35 4.35 26.8 3.15 27.6 Q1.45 28.6 -0.55 28.15 L-0.4 26.55 0.0 22.65 Q0.25 18.35 0.15 13.0 L-0.2 0.3 Q1.7 0.4 3.25 1.5" fill="#d6baba" fill-rule="evenodd" stroke="none"/>
    <path d="M-0.2 0.3 L0.15 13.0 Q0.25 18.35 0.0 22.65 L-0.4 26.55 -0.55 28.15 -2.1 27.65 Q-3.4 27.15 -4.0 26.55 -4.8 25.75 -4.85 24.65 L-6.2 6.95 Q-6.25 4.65 -5.35 3.25 -3.85 0.8 -0.2 0.3" fill="#ffffff" fill-rule="evenodd" stroke="none"/>
    <path d="M4.35 26.8 L5.5 24.35 6.2 6.75 Q5.3 3.1 3.25 1.5 M-4.0 26.55 Q-4.8 25.75 -4.85 24.65 L-6.2 6.95 Q-6.25 4.65 -5.35 3.25" fill="none" stroke="#000000" stroke-linecap="round" stroke-linejoin="round" stroke-opacity="0.3019608" stroke-width="0.05"/>
  </g>
</svg>
