<?xml version="1.0" encoding="UTF-8" standalone="no"?>
<svg xmlns:xlink="http://www.w3.org/1999/xlink" height="20.7px" width="1.7px" xmlns="http://www.w3.org/2000/svg">
  <g transform="matrix(1.0, 0.0, 0.0, 1.0, 5.15, 0.35)">
    <path d="M-3.5 8.7 L-4.2 20.35 Q-5.45 12.3 -5.05 4.35 -4.95 1.95 -4.35 -0.35 -3.2 4.1 -3.5 8.7" fill="#ffffff" fill-rule="evenodd" stroke="none"/>
  </g>
</svg>
