<?xml version="1.0" encoding="UTF-8" standalone="no"?>
<svg xmlns:xlink="http://www.w3.org/1999/xlink" height="1.8px" width="2.7px" xmlns="http://www.w3.org/2000/svg">
  <g transform="matrix(1.0, 0.0, 0.0, 1.0, 4.65, 4.4)">
    <path d="M-2.5 -2.6 Q-3.1 -2.6 -3.9 -3.05 L-4.65 -3.8 Q-4.65 -4.7 -3.3 -4.3 -1.95 -3.85 -1.95 -3.2 -1.95 -2.6 -2.5 -2.6" fill="#ffffff" fill-rule="evenodd" stroke="none"/>
  </g>
</svg>
