<?xml version="1.0" encoding="UTF-8" standalone="no"?>
<svg xmlns:xlink="http://www.w3.org/1999/xlink" height="36.75px" width="43.5px" xmlns="http://www.w3.org/2000/svg">
  <g transform="matrix(1.0, 0.0, 0.0, 1.0, 17.8, 16.65)">
    <use height="14.8" id="_p1" transform="matrix(1.0, 0.0, 0.0, 1.0, -17.8, -7.3)" width="25.55" xlink:href="#sprite0"/>
  </g>
  <defs/>
</svg>
