<?xml version="1.0" encoding="UTF-8" standalone="no"?>
<svg xmlns:xlink="http://www.w3.org/1999/xlink" height="62.85px" width="43.35px" xmlns="http://www.w3.org/2000/svg">
  <g transform="matrix(1.0, 0.0, 0.0, 1.0, 14.75, 35.55)">
    <use height="9.25" id="_p1" transform="matrix(1.0, 0.0, 0.0, 1.0, -6.1, -17.95)" width="12.0" xlink:href="#sprite0"/>
  </g>
  <defs/>
</svg>
