<?xml version="1.0" encoding="UTF-8" standalone="no"?>
<svg xmlns:xlink="http://www.w3.org/1999/xlink" height="600.0px" width="330.0px" xmlns="http://www.w3.org/2000/svg">
  <g transform="matrix(1.0, 0.0, 0.0, 1.0, 0.0, 0.0)">
    <use height="600.0" transform="matrix(1.0, 0.0, 0.0, 1.0, 0.0, 0.0)" width="330.0" xlink:href="#shape0"/>
  </g>
  <defs>
    <g id="shape0" transform="matrix(1.0, 0.0, 0.0, 1.0, 0.0, 0.0)">
      <path d="M330.0 600.0 L0.0 600.0 0.0 0.0 330.0 0.0 330.0 600.0" fill="#faf8c3" fill-rule="evenodd" stroke="none"/>
    </g>
  </defs>
</svg>
