<?xml version="1.0" encoding="UTF-8" standalone="no"?>
<svg xmlns:xlink="http://www.w3.org/1999/xlink" height="30.55px" width="20.25px" xmlns="http://www.w3.org/2000/svg">
  <g transform="matrix(1.0, 0.0, 0.0, 1.0, 10.5, 18.7)">
    <use height="9.25" id="_p1" transform="matrix(1.0, 0.0, 0.0, 1.0, -3.55, 0.85)" width="12.0" xlink:href="#sprite0"/>
  </g>
  <defs/>
</svg>
