<?xml version="1.0" encoding="UTF-8" standalone="no"?>
<svg xmlns:xlink="http://www.w3.org/1999/xlink" height="2.6px" width="5.6px" xmlns="http://www.w3.org/2000/svg">
  <g transform="matrix(1.0, 0.0, 0.0, 1.0, 2.85, 1.55)">
    <use height="2.6" transform="matrix(1.0, 0.0, 0.0, 1.0, -2.0, -1.55)" width="3.85" xlink:href="#shape0"/>
  </g>
  <defs>
    <g id="shape0" transform="matrix(1.0, 0.0, 0.0, 1.0, 2.0, 1.55)">
      <path d="M-1.45 1.05 L-1.85 0.65 -2.0 -0.25 -1.85 -1.2 -1.45 -1.55 -1.0 -1.2 Q-0.85 -0.85 -0.85 -0.25 L-1.0 0.65 -1.45 1.05" fill="#000000" fill-rule="evenodd" stroke="none"/>
      <path d="M1.45 1.05 Q1.25 1.05 1.15 0.65 L1.0 -0.25 Q1.0 -0.85 1.15 -1.2 L1.45 -1.55 1.7 -1.2 1.85 -0.25 1.7 0.65 1.45 1.05" fill="#000000" fill-rule="evenodd" stroke="none"/>
    </g>
  </defs>
</svg>
