<?xml version="1.0" encoding="UTF-8" standalone="no"?>
<svg xmlns:xlink="http://www.w3.org/1999/xlink" height="4.75px" width="3.75px" xmlns="http://www.w3.org/2000/svg">
  <g transform="matrix(1.0, 0.0, 0.0, 1.0, -0.4, 15.5)">
    <path d="M0.4 -14.05 L3.1 -15.0 4.15 -15.5 3.3 -12.95 2.9 -10.75 1.05 -13.3 0.4 -14.05" fill="#ffff00" fill-rule="evenodd" stroke="none"/>
  </g>
</svg>
