<?xml version="1.0" encoding="UTF-8" standalone="no"?>
<svg xmlns:xlink="http://www.w3.org/1999/xlink" height="16.7px" width="17.05px" xmlns="http://www.w3.org/2000/svg">
  <g transform="matrix(1.0, 0.0, 0.0, 1.0, 7.5, 8.65)">
    <path d="M4.9 -6.0 L6.35 -4.55 -6.15 7.95 -7.4 6.7 4.95 -5.75 4.9 -6.0" fill="#725327" fill-rule="evenodd" stroke="none"/>
    <path d="M4.9 -6.0 L4.45 -7.55 9.55 -8.65 7.85 -4.15 6.4 -4.6 6.35 -4.55 4.9 -6.0 M-6.15 7.95 L-6.25 8.05 -7.5 6.8 -7.4 6.7 -6.15 7.95" fill="#e0e8eb" fill-rule="evenodd" stroke="none"/>
  </g>
</svg>
