<?xml version="1.0" encoding="UTF-8" standalone="no"?>
<svg xmlns:xlink="http://www.w3.org/1999/xlink" height="20.0px" width="20.0px" xmlns="http://www.w3.org/2000/svg">
  <g transform="matrix(1.0, 0.0, 0.0, 1.0, 10.0, 10.0)">
    <path d="M7.05 -7.05 Q10.0 -4.15 10.0 0.0 10.0 4.15 7.05 7.05 4.15 10.0 0.0 10.0 -4.15 10.0 -7.05 7.05 -10.0 4.15 -10.0 0.0 -10.0 -4.15 -7.05 -7.05 -4.15 -10.0 0.0 -10.0 4.15 -10.0 7.05 -7.05" fill="#ffffff" fill-opacity="0.101960786" fill-rule="evenodd" stroke="none"/>
    <path d="M1.05 -1.1 Q1.5 -0.65 1.5 0.0 L1.05 1.05 0.0 1.5 -1.05 1.05 -1.5 0.0 Q-1.5 -0.65 -1.05 -1.1 -0.65 -1.5 0.0 -1.5 0.6 -1.5 1.05 -1.1" fill="#ffffff" fill-rule="evenodd" stroke="none"/>
  </g>
</svg>
