<?xml version="1.0" encoding="UTF-8" standalone="no"?>
<svg xmlns:xlink="http://www.w3.org/1999/xlink" height="47.2px" width="33.15px" xmlns="http://www.w3.org/2000/svg">
  <g transform="matrix(1.0, 0.0, 0.0, 1.0, 16.2, 21.05)">
    <use height="46.65" id="_p1" transform="matrix(1.0, 0.0, 0.0, 1.0, -16.2, -20.5)" width="33.15" xlink:href="#sprite0"/>
  </g>
  <defs/>
</svg>
